<?xml version="1.0" encoding="UTF-8"?>
<svg width="32px" height="34px" viewBox="0 0 32 34" version="1.1" xmlns="http://www.w3.org/2000/svg" xmlns:xlink="http://www.w3.org/1999/xlink">
    <!-- Generator: Sketch 51.2 (57519) - http://www.bohemiancoding.com/sketch -->
    <title>Play</title>
    <desc>Created with Sketch.</desc>
    <defs>
        <path d="M80.3641265,64.1818182 C79.6099753,64.1818182 79,63.5807273 79,62.84 L79,39.3418182 C79,38.6010909 79.6099753,38 80.3641265,38 L102.545045,50.084 C102.545045,50.084 103.568694,51.0909091 102.545045,52.0978182 C101.521395,53.1047273 80.3641265,64.1818182 80.3641265,64.1818182" id="path-1"></path>
        <filter x="-25.0%" y="-22.9%" width="150.0%" height="145.8%" filterUnits="objectBoundingBox" id="filter-2">
            <feOffset dx="0" dy="0" in="SourceAlpha" result="shadowOffsetOuter1"></feOffset>
            <feGaussianBlur stdDeviation="2" in="shadowOffsetOuter1" result="shadowBlurOuter1"></feGaussianBlur>
            <feColorMatrix values="0 0 0 0 0   0 0 0 0 0   0 0 0 0 0  0 0 0 0.5 0" type="matrix" in="shadowBlurOuter1"></feColorMatrix>
        </filter>
    </defs>
    <g id="VOD" stroke="none" stroke-width="1" fill="none" fill-rule="evenodd">
        <g id="01.5_vieplay_web_VOD_setting_report" transform="translate(-640.000000, -732.000000)" fill-rule="nonzero">
            <g id="EPISODES" transform="translate(360.000000, 653.000000)">
                <g id="episode" transform="translate(1.000000, 45.000000)">
                    <g id="Group-3-Copy-5" transform="translate(204.000000, 0.000000)">
                        <g id="Bitmap">
                            <g id="Play">
                                <use fill="black" fill-opacity="1" filter="url(#filter-2)" xlink:href="#path-1"></use>
                                <use fill="#FFFFFF" xlink:href="#path-1"></use>
                            </g>
                        </g>
                    </g>
                </g>
            </g>
        </g>
    </g>
</svg>