<?xml version="1.0" encoding="UTF-8"?>
<svg width="120px" height="120px" viewBox="0 0 120 120" version="1.1" xmlns="http://www.w3.org/2000/svg" xmlns:xlink="http://www.w3.org/1999/xlink">
    <!-- Generator: Sketch 51.2 (57519) - http://www.bohemiancoding.com/sketch -->
    <title>btn-play</title>
    <desc>Created with Sketch.</desc>
    <defs>
        <filter x="-15.0%" y="-15.0%" width="130.0%" height="130.0%" filterUnits="objectBoundingBox" id="filter-1">
            <feOffset dx="0" dy="0" in="SourceAlpha" result="shadowOffsetOuter1"></feOffset>
            <feGaussianBlur stdDeviation="5" in="shadowOffsetOuter1" result="shadowBlurOuter1"></feGaussianBlur>
            <feColorMatrix values="0 0 0 0 0   0 0 0 0 0   0 0 0 0 0  0 0 0 0.5 0" type="matrix" in="shadowBlurOuter1" result="shadowMatrixOuter1"></feColorMatrix>
            <feMerge>
                <feMergeNode in="shadowMatrixOuter1"></feMergeNode>
                <feMergeNode in="SourceGraphic"></feMergeNode>
            </feMerge>
        </filter>
    </defs>
    <g id="VOD" stroke="none" stroke-width="1" fill="none" fill-rule="evenodd">
        <g id="01.14_vieplay_web_VOD_hover" transform="translate(-901.000000, -281.000000)" fill="#FFFFFF">
            <g id="vid_thumbnail" transform="translate(498.000000, 81.000000)">
                <g id="btn-play" transform="translate(413.000000, 210.000000)">
                    <g id="play" filter="url(#filter-1)">
                        <path d="M39.1666667,23.5416667 C38.75,23.125 37.9166667,23.125 37.5,23.5416667 C36.875,23.75 36.6666667,24.375 36.6666667,25 L36.6666667,75 C36.6666667,75.625 37.0833333,76.25 37.5,76.4583333 C37.7083333,76.6666667 37.9166667,76.6666667 38.3333333,76.6666667 C38.75,76.6666667 38.9583333,76.6666667 39.375,76.4583333 L76.0416667,51.4583333 C76.4583333,51.25 76.875,50.625 76.875,50 C76.6666667,49.375 76.4583333,48.9583333 75.8333333,48.5416667 L39.1666667,23.5416667 Z" id="Shape" fill-rule="nonzero"></path>
                        <path d="M50,0 C22.5,0 0,22.5 0,50 C0,77.5 22.5,100 50,100 C77.5,100 100,77.5 100,50 C100,22.5 77.5,0 50,0 Z M50,96.6666667 C24.1666667,96.6666667 3.33333333,75.8333333 3.33333333,50 C3.33333333,24.1666667 24.1666667,3.33333333 50,3.33333333 C75.8333333,3.33333333 96.6666667,24.1666667 96.6666667,50 C96.6666667,75.8333333 75.8333333,96.6666667 50,96.6666667 Z" id="Shape" fill-rule="nonzero"></path>
                    </g>
                </g>
            </g>
        </g>
    </g>
</svg>