<?xml version="1.0" encoding="UTF-8"?>
<svg width="22px" height="22px" viewBox="0 0 22 22" version="1.1" xmlns="http://www.w3.org/2000/svg" xmlns:xlink="http://www.w3.org/1999/xlink">
    <!-- Generator: Sketch 51.2 (57519) - http://www.bohemiancoding.com/sketch -->
    <title>Fill 88</title>
    <desc>Created with Sketch.</desc>
    <defs></defs>
    <g id="VOD" stroke="none" stroke-width="1" fill="none" fill-rule="evenodd">
        <g id="01.14_vieplay_web_VOD_hover" transform="translate(-918.000000, -708.000000)" fill="#55D184" fill-rule="nonzero">
            <g id="EPISODES" transform="translate(360.000000, 653.000000)">
                <g id="episode" transform="translate(1.000000, 45.000000)">
                    <g id="Group-3-Copy-7" transform="translate(370.000000, 0.000000)">
                        <g id="Bitmap">
                            <path d="M202.755406,23.069649 L198.092129,23.069649 C198.076545,23.069649 198.060961,23.0659886 198.045377,23.0650735 C198.029793,23.0659886 198.016042,23.069649 197.999542,23.069649 C197.579691,23.069649 197.238677,22.7292269 197.238677,22.3101049 L197.238677,14.5572645 C197.238677,14.1372275 197.579691,13.7977204 197.999542,13.7977204 C198.420309,13.7977204 198.760407,14.1372275 198.760407,14.5572645 L198.760407,21.5505608 L202.755406,21.5505608 C203.175257,21.5505608 203.516272,21.890983 203.516272,22.3101049 C203.516272,22.7292269 203.175257,23.069649 202.755406,23.069649 M198.000458,10 C191.924539,10 187,14.915989 187,20.9813603 C187,27.0458166 191.924539,31.9627207 198.000458,31.9627207 C204.074545,31.9627207 209,27.0458166 209,20.9813603 C209,14.915989 204.074545,10 198.000458,10" id="Fill-88"></path>
                        </g>
                    </g>
                </g>
            </g>
        </g>
    </g>
</svg>